{"meta":{"pagination":{"total":3202,"pages":161,"page":1,"limit":20,"links":{"previous":null,"current":"https://gorest.co.in/public/v1/users?page=1","next":"https://gorest.co.in/public/v1/users?page=2"}}},"data":[{"id":3249,"name":"Anang Butt","email":"butt_anang@thompson.co","gender":"male","status":"inactive"},{"id":3245,"name":"Gov. Suryakanta Reddy","email":"suryakanta_reddy_gov@crona.io","gender":"female","status":"inactive"},{"id":3244,"name":"Pres. Karunanidhi Bhattacharya","email":"karunanidhi_pres_bhattacharya@bogisich.info","gender":"male","status":"inactive"},{"id":3243,"name":"Chaturaanan Marar","email":"marar_chaturaanan@oconnell.co","gender":"male","status":"inactive"},{"id":3242,"name":"Gov. Kali Naik","email":"naik_gov_kali@heidenreich.org","gender":"female","status":"inactive"},{"id":3240,"name":"Aadrika Marar III","email":"iii_marar_aadrika@langworth.io","gender":"female","status":"inactive"},{"id":3239,"name":"Kamlesh Banerjee","email":"kamlesh_banerjee@kassulke.io","gender":"male","status":"active"},{"id":3238,"name":"Lakshmidhar Marar","email":"marar_lakshmidhar@wiza.net","gender":"female","status":"active"},{"id":3237,"name":"Jitender Mahajan","email":"jitender_mahajan@rowe-heathcote.name","gender":"male","status":"active"},{"id":3236,"name":"Ahilya Ahuja","email":"ahilya_ahuja@boyle-balistreri.info","gender":"female","status":"active"},{"id":3235,"name":"Dayamayee Naik","email":"naik_dayamayee@homenick-lemke.co","gender":"female","status":"active"},{"id":3234,"name":"Dinakar Acharya DDS","email":"dinakar_dds_acharya@toy.com","gender":"female","status":"active"},{"id":3233,"name":"Mandakini Talwar","email":"talwar_mandakini@howell.org","gender":"female","status":"inactive"},{"id":3232,"name":"Vimala Rana","email":"vimala_rana@haley.info","gender":"male","status":"active"},{"id":3231,"name":"Ms. Anal Kapoor","email":"anal_kapoor_ms@hessel.org","gender":"male","status":"inactive"},{"id":3230,"name":"Chitrangada Abbott II","email":"abbott_ii_chitrangada@mayer.io","gender":"female","status":"active"},{"id":3229,"name":"Msgr. Bhooshit Achari","email":"msgr_achari_bhooshit@durgan-johns.co","gender":"male","status":"active"},{"id":3228,"name":"Bhisham Deshpande","email":"bhisham_deshpande@herzog.com","gender":"female","status":"active"},{"id":3227,"name":"Dr. Aadrika Varrier","email":"aadrika_varrier_dr@heidenreich.co","gender":"male","status":"active"},{"id":3226,"name":"Dr. Tara Malik","email":"tara_malik_dr@mclaughlin.org","gender":"female","status":"inactive"}]}